<?xml version="1.0" encoding="iso-8859-1"?>
<!-- Generator: Adobe Illustrator 19.2.1, SVG Export Plug-In . SVG Version: 6.00 Build 0)  -->
<svg version="1.1" xmlns="http://www.w3.org/2000/svg" xmlns:xlink="http://www.w3.org/1999/xlink" x="0px" y="0px"
	 viewBox="0 0 80.306 69.218" style="enable-background:new 0 0 80.306 69.218;" xml:space="preserve">
<g id="books_dark">
	<g>
		<path style="fill:#006879;" d="M2.394,35.352c-1.991-2.641-2.344-5.709-2.394-8.864c-0.028-1.787,0.923-2.904,2.417-3.679
			c4.181-2.168,8.367-4.329,12.542-6.507c9.997-5.215,19.989-10.439,29.983-15.659c0.181-0.094,0.369-0.178,0.54-0.287
			c0.807-0.514,1.556-0.441,2.396,0.025C58.23,6.118,68.594,11.83,78.954,17.55c0.243,0.134,0.492,0.269,0.704,0.445
			c0.909,0.755,0.784,2.105-0.273,2.718c-1.075,0.623-2.172,1.208-3.271,1.787c-0.341,0.18-0.517,0.407-0.59,0.794
			c-0.433,2.287-0.476,4.537,0.539,6.705c0.047,0.101,0.101,0.198,0.157,0.294c0.036,0.063,0.081,0.122,0.159,0.239
			c0.382-0.218,0.76-0.435,1.139-0.649c1.003-0.567,1.977-0.393,2.488,0.442c0.572,0.935,0.299,2.4-0.594,2.923
			c-1.088,0.636-2.22,1.199-3.305,1.841c-0.247,0.146-0.491,0.46-0.551,0.737c-0.48,2.238-0.512,4.457,0.453,6.6
			c0.068,0.152,0.148,0.299,0.228,0.445c0.035,0.063,0.085,0.118,0.155,0.212c0.404-0.23,0.798-0.46,1.197-0.682
			c0.972-0.539,1.942-0.339,2.428,0.497c0.511,0.88,0.219,1.828-0.763,2.4c-5.58,3.247-11.163,6.489-16.745,9.733
			c-7.875,4.577-15.759,9.14-23.616,13.749c-1.016,0.596-1.825,0.582-2.817-0.036C25.114,61.917,14.134,55.118,3.15,48.326
			c-0.708-0.438-1.241-0.989-1.609-1.719c-1.289-2.558-1.629-5.295-1.487-8.113c0.059-1.177,0.64-2.07,1.654-2.68
			C1.944,35.673,2.166,35.507,2.394,35.352z M8.526,23.432c0.493,0.27,0.903,0.484,1.303,0.716
			c8.968,5.211,17.936,10.422,26.898,15.643c0.297,0.173,0.508,0.16,0.804-0.002c11.798-6.456,23.601-12.901,35.403-19.349
			c0.693-0.379,1.384-0.761,2.143-1.178c-0.223-0.138-0.371-0.239-0.526-0.325C65.391,13.879,56.23,8.825,47.074,3.763
			c-0.302-0.167-0.526-0.193-0.855-0.022c-10.417,5.452-20.842,10.89-31.265,16.331C12.836,21.178,10.717,22.286,8.526,23.432z
			 M71.929,24.822c-0.249,0.126-0.397,0.195-0.54,0.274c-11.004,6.011-22.012,12.016-33.005,18.048
			c-0.917,0.503-1.68,0.512-2.589-0.02c-7.832-4.578-15.68-9.129-23.529-13.677c-1.845-1.069-3.691-2.142-5.583-3.122
			c-0.671-0.347-1.472-0.481-2.232-0.605c-0.516-0.085-1.092,0.353-1.095,0.719c-0.016,2,0.164,3.973,1.032,5.812
			c0.14,0.297,0.413,0.576,0.693,0.754c2.07,1.309,4.154,2.597,6.241,3.879c8.427,5.175,16.73,10.554,25.343,15.423
			c0.3,0.169,0.525,0.233,0.859,0.049c10.335-5.726,20.811-11.197,30.979-17.224c1.641-0.973,3.297-1.921,4.971-2.895
			C72.117,29.954,71.771,27.485,71.929,24.822z M71.924,37.387c-0.261,0.129-0.443,0.21-0.617,0.306
			c-2.507,1.369-5.038,2.695-7.513,4.118c-8.377,4.818-16.737,9.664-25.092,14.521c-0.858,0.499-1.59,0.504-2.428-0.031
			c-2.157-1.379-4.323-2.747-6.528-4.047C22.491,47.976,15.23,43.711,7.94,39.496c-0.992-0.573-2.143-0.905-3.257-1.221
			c-0.781-0.222-1.39,0.341-1.323,1.136c0.105,1.254,0.219,2.513,0.445,3.75c0.228,1.251,0.841,2.191,2.032,2.922
			c10.425,6.39,20.805,12.853,31.191,19.306c0.363,0.225,0.614,0.245,0.993,0.024c11.428-6.66,22.865-13.306,34.3-19.954
			c0.38-0.221,0.757-0.446,1.15-0.679C72.107,42.486,71.781,40.018,71.924,37.387z"/>
	</g>
</g>
<g id="Layer_1">
</g>
</svg>
