<?xml version="1.0" encoding="iso-8859-1"?>
<!-- Generator: Adobe Illustrator 19.2.1, SVG Export Plug-In . SVG Version: 6.00 Build 0)  -->
<svg version="1.1" xmlns="http://www.w3.org/2000/svg" xmlns:xlink="http://www.w3.org/1999/xlink" x="0px" y="0px"
	 viewBox="0 0 89.166 74.167" style="enable-background:new 0 0 89.166 74.167;" xml:space="preserve">
<g id="grade_average_bright">
	<g>
		
			<line style="fill:none;stroke:#00B6CC;stroke-width:4;stroke-linecap:round;stroke-linejoin:round;stroke-miterlimit:10;" x1="2" y1="72.167" x2="87.166" y2="72.167"/>
		<g>
			
				<rect x="6.959" y="20.261" style="fill:none;stroke:#00B6CC;stroke-width:4;stroke-linecap:round;stroke-linejoin:round;stroke-miterlimit:10;" width="16" height="51.906"/>
			
				<rect x="36.583" y="30.448" style="fill:none;stroke:#00B6CC;stroke-width:4;stroke-linecap:round;stroke-linejoin:round;stroke-miterlimit:10;" width="16" height="41.719"/>
			
				<rect x="66.207" y="2" style="fill:none;stroke:#00B6CC;stroke-width:4;stroke-linecap:round;stroke-linejoin:round;stroke-miterlimit:10;" width="16" height="70.167"/>
		</g>
	</g>
</g>
<g id="Layer_1">
</g>
</svg>
