<?xml version="1.0" encoding="iso-8859-1"?>
<!-- Generator: Adobe Illustrator 19.2.1, SVG Export Plug-In . SVG Version: 6.00 Build 0)  -->
<svg version="1.1" xmlns="http://www.w3.org/2000/svg" xmlns:xlink="http://www.w3.org/1999/xlink" x="0px" y="0px"
	 viewBox="0 0 31.687 41.371" style="enable-background:new 0 0 31.687 41.371;" xml:space="preserve">
<g id="homework_checking_white">
	<g>
		<path style="fill:#FFFFFF;" d="M1.37,40.427c0-0.453,0-0.856,0-1.291c-0.458-0.043-0.9-0.085-1.37-0.13
			c0.042-0.551,0.08-1.089,0.124-1.625c0.253-3.057,0.507-6.115,0.762-9.172c0.158-1.899,0.32-3.799,0.479-5.698
			c0.011-0.138,0.012-0.277,0.012-0.415c0-6.791,0-13.581,0-20.371c0-0.137,0-0.273,0-0.439c0.583,0,1.144,0,1.737,0
			C3.156,0.852,3.196,0.443,3.238,0c0.633,0.051,1.256,0.099,1.878,0.151c2.198,0.182,4.395,0.365,6.592,0.548
			s4.394,0.366,6.591,0.547c0.191,0.016,0.383,0.028,0.574,0.028c3.55,0.001,7.1,0.001,10.649,0.001c0.125,0,0.25,0,0.409,0
			c0,0.323,0,0.616,0,0.931c0.598,0.054,1.165,0.105,1.756,0.159c-0.065,0.815-0.127,1.598-0.191,2.382
			c-0.183,2.218-0.367,4.436-0.552,6.654c-0.182,2.187-0.378,4.373-0.545,6.561c-0.209,2.739-0.508,5.469-0.479,8.227
			c0.048,4.594,0.013,9.189,0.013,13.783c0,0.138,0,0.275,0,0.451c-0.469,0-0.921,0-1.387,0c-0.034,0.329-0.065,0.622-0.099,0.948
			c-0.561-0.043-1.109-0.081-1.657-0.127c-3.046-0.253-6.092-0.51-9.139-0.757c-0.519-0.042-1.042-0.055-1.563-0.056
			c-4.765-0.004-9.53-0.002-14.295-0.002C1.665,40.427,1.54,40.427,1.37,40.427z M2.315,2.203c0,12.455,0,24.869,0,37.294
			c8.904,0,17.789,0,26.7,0c0-0.139,0-0.255,0-0.37c0-12.176-0.001-24.352,0.008-36.528c0-0.33-0.088-0.404-0.407-0.404
			C19.98,2.204,11.344,2.202,2.708,2.202C2.582,2.203,2.457,2.203,2.315,2.203z M29.946,11.791c0.012,0.001,0.024,0.002,0.036,0.003
			c0.238-2.859,0.476-5.719,0.715-8.59c-0.277-0.023-0.505-0.042-0.751-0.063C29.946,6.045,29.946,8.918,29.946,11.791z
			 M1.365,38.177c0-1.383,0-2.74,0-4.097c-0.011-0.001-0.022-0.001-0.033-0.002c-0.114,1.361-0.228,2.722-0.343,4.099
			C1.144,38.177,1.238,38.177,1.365,38.177z M4.094,1.256c0.942,0,1.879,0,2.815,0C6.041,1.154,5.172,1.083,4.304,1.009
			C4.116,0.994,4.018,1.04,4.094,1.256z"/>
		<path style="fill:#FFFFFF;" d="M14.628,20.264c-2.611,0-5.223,0-7.834-0.001c-0.116,0-0.239,0.001-0.346-0.034
			c-0.232-0.076-0.338-0.252-0.304-0.495c0.032-0.231,0.178-0.356,0.406-0.382c0.084-0.01,0.17-0.004,0.256-0.004
			c5.223,0,13.584-0.005,18.806-0.005c0.043,0,0.085,0,0.128,0c0.368,0.007,0.571,0.172,0.567,0.461
			c-0.004,0.282-0.217,0.455-0.578,0.455C23.075,20.26,17.282,20.264,14.628,20.264z"/>
		<path style="fill:#FFFFFF;" d="M14.662,15.189c-2.611,0-5.223,0-7.834,0c-0.096,0-0.193,0.008-0.287-0.005
			c-0.243-0.033-0.386-0.178-0.401-0.423s0.114-0.407,0.347-0.469c0.1-0.027,0.211-0.019,0.317-0.019
			c5.233-0.001,13.605-0.006,18.838-0.006c0.074,0,0.15-0.006,0.224,0.004c0.267,0.037,0.44,0.187,0.436,0.461
			c-0.004,0.272-0.167,0.428-0.444,0.449c-0.095,0.007-0.192,0.003-0.288,0.003C22.98,15.184,17.252,15.189,14.662,15.189z"/>
		<path style="fill:#FFFFFF;" d="M14.674,34.541c2.612,0,8.362-0.005,10.973-0.004c0.116,0,0.273-0.025,0.339,0.037
			c0.133,0.127,0.296,0.306,0.295,0.463c-0.001,0.134-0.195,0.295-0.339,0.391c-0.092,0.062-0.248,0.035-0.375,0.035
			c-5.181,0.001-13.5,0.006-18.681,0.005c-0.117,0-0.235-0.002-0.35-0.019c-0.259-0.038-0.401-0.192-0.395-0.456
			c0.006-0.282,0.173-0.421,0.442-0.449c0.084-0.009,0.17-0.003,0.256-0.003C9.45,34.541,12.062,34.541,14.674,34.541z"/>
		<path style="fill:#FFFFFF;" d="M14.637,25.329c-2.601,0-5.202,0-7.803,0c-0.096,0-0.194,0.01-0.288-0.005
			c-0.251-0.042-0.405-0.184-0.406-0.451c-0.002-0.247,0.124-0.404,0.368-0.447c0.125-0.022,0.255-0.024,0.382-0.024
			c5.17-0.001,13.479-0.006,18.649-0.005c0.127,0,0.256,0.005,0.382,0.023c0.248,0.036,0.379,0.2,0.381,0.438
			c0.002,0.257-0.153,0.413-0.404,0.459c-0.093,0.017-0.191,0.006-0.287,0.006C22.999,25.324,17.249,25.329,14.637,25.329z"/>
		<path style="fill:#FFFFFF;" d="M14.636,30.393c-2.633,0-5.266,0.001-7.899,0c-0.412,0-0.596-0.144-0.598-0.454
			c-0.001-0.25,0.128-0.402,0.368-0.448c0.114-0.022,0.234-0.013,0.351-0.013c5.191,0,13.521-0.006,18.712-0.005
			c0.117,0,0.237-0.008,0.351,0.012c0.24,0.043,0.379,0.201,0.382,0.441c0.003,0.243-0.138,0.399-0.375,0.448
			c-0.113,0.023-0.234,0.014-0.351,0.014C22.976,30.389,17.237,30.393,14.636,30.393z"/>
		<path style="fill:#FFFFFF;" d="M12.669,9.207c2.078,0,4.155,0,6.233,0.001c0.106,0,0.249-0.031,0.311,0.024
			c0.138,0.124,0.304,0.281,0.333,0.446c0.04,0.225-0.123,0.397-0.372,0.433c-0.115,0.017-0.233,0.023-0.35,0.023
			c-4.113,0.001-8.225,0.001-12.338,0c-0.096,0-0.192,0-0.287-0.012C5.91,10.085,5.732,9.895,5.746,9.645
			C5.76,9.398,5.959,9.211,6.244,9.209C7.192,9.203,8.14,9.207,9.089,9.207C10.283,9.207,11.476,9.207,12.669,9.207z"/>
		<path style="fill:#FFFFFF;" d="M23.587,10.268c0.564-0.677,1.109-1.331,1.654-1.984c0.082-0.098,0.162-0.198,0.251-0.289
			c0.199-0.201,0.472-0.224,0.657-0.061c0.192,0.169,0.214,0.433,0.031,0.659c-0.348,0.431-0.708,0.852-1.062,1.277
			c-0.382,0.458-0.758,0.921-1.146,1.374c-0.315,0.367-0.604,0.351-0.876-0.044c-0.278-0.404-0.55-0.811-0.816-1.222
			C22.1,9.7,22.143,9.426,22.374,9.279c0.238-0.152,0.481-0.083,0.677,0.199C23.227,9.73,23.397,9.986,23.587,10.268z"/>
	</g>
</g>
<g id="Layer_1">
</g>
</svg>
