<?xml version="1.0" encoding="iso-8859-1"?>
<!-- Generator: Adobe Illustrator 19.2.1, SVG Export Plug-In . SVG Version: 6.00 Build 0)  -->
<svg version="1.1" xmlns="http://www.w3.org/2000/svg" xmlns:xlink="http://www.w3.org/1999/xlink" x="0px" y="0px"
	 viewBox="0 0 37.666 27.75" style="enable-background:new 0 0 37.666 27.75;" xml:space="preserve">
<g id="mail_mouseover">
	<g>
		<path style="fill:none;stroke:#000CF4;stroke-width:2.5;stroke-miterlimit:10;" d="M35.416,26.5H2.25c-0.55,0-1-0.45-1-1V2.25
			c0-0.55,0.45-1,1-1h33.166c0.55,0,1,0.45,1,1V25.5C36.416,26.05,35.966,26.5,35.416,26.5z"/>
		<polyline style="fill:none;stroke:#000CF4;stroke-width:2.5;stroke-miterlimit:10;" points="1.875,1.819 18.833,17.25 
			36.076,1.506 		"/>
		<line style="fill:none;stroke:#000CF4;stroke-width:2.5;stroke-miterlimit:10;" x1="1.875" y1="25.625" x2="13.446" y2="12.768"/>
		
			<line style="fill:none;stroke:#000CF4;stroke-width:2.5;stroke-miterlimit:10;" x1="24.625" y1="12.768" x2="35.664" y2="25.625"/>
	</g>
</g>
<g id="Layer_1">
</g>
</svg>
