<?xml version="1.0" encoding="iso-8859-1"?>
<!-- Generator: Adobe Illustrator 19.2.1, SVG Export Plug-In . SVG Version: 6.00 Build 0)  -->
<svg version="1.1" xmlns="http://www.w3.org/2000/svg" xmlns:xlink="http://www.w3.org/1999/xlink" x="0px" y="0px"
	 viewBox="0 0 56.973 66.351" style="enable-background:new 0 0 56.973 66.351;" xml:space="preserve">
<g id="stoper_white">
	<g>
		<path style="fill:#FFFFFF;" d="M23.746,9.871c0-2.246,0-4.451,0-6.71c-1.053,0-2.084,0.018-3.114-0.005
			c-1.163-0.026-1.915-1.133-1.476-2.166c0.292-0.687,0.849-0.99,1.59-0.989c2.562,0.004,5.124,0.001,7.685,0.001
			c2.615,0,5.229-0.006,7.843,0.003c1.224,0.004,1.997,1.037,1.606,2.116c-0.23,0.635-0.806,1.03-1.554,1.037
			c-0.999,0.01-1.999,0.002-3.039,0.002c0,2.238,0,4.456,0,6.736c2.6,0.466,5.128,1.256,7.536,2.417
			c2.413,1.165,4.612,2.652,6.653,4.456c1.06-1.06,2.098-2.099,3.137-3.138c0.186-0.186,0.367-0.378,0.56-0.557
			c0.631-0.584,1.537-0.58,2.135,0.003c0.613,0.596,0.64,1.542,0.02,2.17c-1.207,1.224-2.434,2.428-3.655,3.642
			c6.784,8.145,9.022,17.308,5.942,27.482c-2.381,7.865-7.469,13.623-14.874,17.184c-14.907,7.169-32.87,0.027-38.742-15.422
			c-3.165-8.328-2.585-16.517,1.83-24.267C8.237,16.13,15.02,11.59,23.746,9.871z M3.239,37.539
			c-0.175,14.036,10.987,25.409,24.849,25.63c14.056,0.224,25.465-10.955,25.682-24.845c0.22-14.106-10.989-25.438-24.791-25.682
			C14.841,12.393,3.454,23.649,3.239,37.539z M30.05,9.515c0-2.107,0-4.218,0-6.328c-1.049,0-2.06,0-3.084,0
			c0,2.136,0,4.245,0,6.328C28.014,9.515,29.026,9.515,30.05,9.515z"/>
		<path style="fill:#FFFFFF;" d="M25.187,32.508c3.893-2.099,7.296-0.159,8.653,2.004c1.593,2.539,1.2,5.932-0.966,7.947
			c-2.301,2.141-5.61,2.35-8.105,0.533c-2.195-1.599-3.557-4.955-1.683-8.315c-0.116-0.124-0.24-0.264-0.372-0.396
			c-2.629-2.63-5.257-5.261-7.889-7.888c-0.446-0.445-0.637-0.957-0.463-1.575c0.167-0.596,0.575-0.957,1.167-1.09
			c0.628-0.141,1.113,0.133,1.549,0.571c2.587,2.598,5.183,5.187,7.772,7.782C24.984,32.216,25.088,32.382,25.187,32.508z
			 M31.666,37.9c-0.009-1.746-1.44-3.16-3.191-3.153c-1.712,0.007-3.128,1.441-3.125,3.164c0.003,1.723,1.424,3.151,3.137,3.152
			C30.238,41.066,31.675,39.635,31.666,37.9z"/>
	</g>
</g>
<g id="Layer_1">
</g>
</svg>
