<?xml version="1.0" encoding="iso-8859-1"?>
<!-- Generator: Adobe Illustrator 19.2.1, SVG Export Plug-In . SVG Version: 6.00 Build 0)  -->
<svg version="1.1" xmlns="http://www.w3.org/2000/svg" xmlns:xlink="http://www.w3.org/1999/xlink" x="0px" y="0px"
	 viewBox="0 0 30.104 39.885" style="enable-background:new 0 0 30.104 39.885;" xml:space="preserve">
<g id="tests_download_white">
	<g>
		<path style="fill:#FFFFFF;" d="M0.001,19.924c0-6.287,0-12.573,0-18.859c0-0.877,0.168-1.044,1.058-1.044
			C8.158,0.02,15.256,0.034,22.355,0c0.738-0.004,1.236,0.208,1.737,0.723c1.858,1.908,3.766,3.769,5.629,5.672
			c0.211,0.215,0.369,0.588,0.37,0.887c0.017,10.51,0.013,21.02,0.011,31.53c0,0.907-0.166,1.073-1.078,1.073
			c-9.292,0-18.583,0-27.875,0C0.132,39.885,0,39.753,0,38.735C0.001,32.464,0.001,26.194,0.001,19.924z M1.414,38.445
			c9.116,0,18.186,0,27.267,0c0-10.212,0-20.397,0-30.627c-0.217,0-0.393,0-0.57,0c-1.559,0-3.118,0.001-4.677-0.001
			c-0.873-0.001-1.031-0.159-1.032-1.012c0-1.608,0-3.216,0-4.823c0-0.172,0-0.344,0-0.508c-7.033,0-14.004,0-20.989,0
			C1.414,13.807,1.414,26.099,1.414,38.445z M23.814,2.644c0,1.229,0,2.474,0,3.72c1.281,0,2.531,0,3.76,0
			C26.312,5.117,25.061,3.878,23.814,2.644z"/>
		<path style="fill:#FFFFFF;" d="M15.791,24.465c0.197-0.18,0.315-0.279,0.424-0.388c0.874-0.872,1.746-1.745,2.619-2.617
			c0.103-0.103,0.204-0.211,0.317-0.302c0.363-0.295,0.72-0.291,0.999,0.001c0.271,0.284,0.303,0.708,0.002,1.01
			c-1.67,1.679-3.355,3.344-5.057,5.035c-0.084-0.069-0.175-0.132-0.251-0.208c-1.563-1.56-3.134-3.113-4.675-4.695
			c-0.183-0.188-0.326-0.559-0.275-0.8c0.119-0.564,0.76-0.649,1.232-0.187c0.87,0.852,1.729,1.716,2.584,2.583
			c0.192,0.194,0.346,0.425,0.518,0.639c0.056-0.03,0.112-0.061,0.168-0.091c0-0.167,0-0.333,0-0.5
			c0-4.823-0.001-9.646,0.001-14.469c0-0.715,0.236-0.99,0.792-0.941c0.34,0.03,0.534,0.22,0.584,0.547
			c0.027,0.175,0.019,0.356,0.019,0.534c0.001,4.742,0.001,9.484,0.001,14.225C15.791,24.013,15.791,24.185,15.791,24.465z"/>
		<path style="fill:#FFFFFF;" d="M15.092,28.935c1.461,0,2.922-0.002,4.384,0.001c0.571,0.001,0.88,0.244,0.879,0.678
			c-0.001,0.415-0.353,0.716-0.869,0.716c-2.939,0.003-5.877,0.004-8.816,0c-0.57-0.001-0.852-0.253-0.839-0.715
			c0.013-0.45,0.302-0.679,0.877-0.68C12.169,28.933,13.63,28.935,15.092,28.935z"/>
	</g>
</g>
<g id="Layer_1">
</g>
</svg>
