<?xml version="1.0" encoding="iso-8859-1"?>
<!-- Generator: Adobe Illustrator 19.2.1, SVG Export Plug-In . SVG Version: 6.00 Build 0)  -->
<svg version="1.1" xmlns="http://www.w3.org/2000/svg" xmlns:xlink="http://www.w3.org/1999/xlink" x="0px" y="0px"
	 viewBox="0 0 132.002 53.967" style="enable-background:new 0 0 132.002 53.967;" xml:space="preserve">
<g id="words_software_white">
	<g>
		<path style="fill:#FFFFFF;" d="M99.903,45.523c0.349,2.003,0.691,3.942,1.02,5.883c0.058,0.343,0.292,0.302,0.525,0.302
			c2.474,0,4.948-0.001,7.422,0.002c0.267,0,0.537,0.002,0.8,0.04c0.569,0.082,0.902,0.528,0.885,1.146
			c-0.017,0.581-0.377,0.996-0.93,1.063c-0.115,0.014-0.234,0.006-0.351,0.006c-8.927,0-17.854,0-26.781,0
			c-0.823,0-1.25-0.371-1.263-1.087c-0.012-0.657,0.343-1.101,1.003-1.132c0.951-0.044,1.904-0.033,2.857-0.036
			c1.688-0.004,3.377-0.017,5.065,0.009c0.483,0.008,0.684-0.101,0.764-0.627c0.272-1.782,0.616-3.552,0.93-5.328
			c0.011-0.062,0.001-0.128,0.001-0.241c-0.222,0-0.436,0-0.65,0c-9.93,0-19.86,0-29.79,0c-1.29,0-1.628-0.34-1.628-1.639
			c0-14.093,0-28.185,0-42.277c0-0.184-0.007-0.369,0.01-0.551c0.06-0.624,0.5-1.032,1.126-1.054
			c0.117-0.004,0.234-0.001,0.351-0.001c23.086,0,46.172,0,69.259,0c1.099,0,1.473,0.371,1.473,1.471
			c0.001,14.193,0.001,28.385,0,42.578c0,1.073-0.405,1.472-1.495,1.472c-9.963,0.001-19.927,0-29.89,0
			C100.402,45.523,100.187,45.523,99.903,45.523z M62.065,34.163c22.575,0,45.113,0,67.639,0c0-10.648,0-21.254,0-31.865
			c-22.566,0-45.09,0-67.639,0C62.065,12.933,62.065,23.527,62.065,34.163z M129.726,36.51c-22.587,0-45.12,0-67.65,0
			c0,2.263,0,4.477,0,6.696c22.57,0,45.104,0,67.65,0C129.726,40.96,129.726,38.757,129.726,36.51z M94.176,45.544
			c-0.358,2.036-0.714,4.062-1.074,6.114c1.885,0,3.719,0,5.583,0c-0.364-2.069-0.719-4.085-1.076-6.114
			C96.453,45.544,95.34,45.544,94.176,45.544z"/>
		<path style="fill:#FFFFFF;" d="M95.896,38.183c0.889-0.002,1.606,0.706,1.607,1.589c0.001,0.873-0.726,1.592-1.609,1.593
			c-0.88,0-1.618-0.73-1.609-1.593C94.293,38.884,95.002,38.184,95.896,38.183z"/>
		<g>
			<g>
				<path style="fill:#FFFFFF;" d="M85.544,22.826c-0.153,0.118-0.355,0.225-0.609,0.322s-0.492,0.145-0.715,0.145
					s-0.468-0.024-0.734-0.071l0.142-1.823c0.008,0.009,0.063,0.02,0.164,0.035s0.202,0.022,0.303,0.022s0.234-0.003,0.399-0.01
					s0.368-0.048,0.608-0.126c0.339-0.107,0.607-0.311,0.805-0.612c0.197-0.301,0.296-0.651,0.296-1.05v-2.344
					c0-0.494-0.121-0.809-0.361-0.947c-0.107-0.06-0.245-0.09-0.412-0.09c-0.365,0-0.687,0.037-0.966,0.109l-0.148,0.039v-1.552
					c0.378-0.099,0.805-0.148,1.282-0.148s0.867,0.045,1.172,0.135c0.305,0.09,0.546,0.207,0.725,0.351s0.319,0.333,0.422,0.567
					c0.103,0.234,0.171,0.468,0.203,0.702s0.048,0.512,0.048,0.834v5.848H86.68l-0.29-1.211h-0.097
					c-0.064,0.129-0.167,0.277-0.309,0.445S85.696,22.708,85.544,22.826z"/>
				<path style="fill:#FFFFFF;" d="M93.217,14.727c1.395,0,2.318,0.269,2.77,0.805c0.24,0.288,0.395,0.603,0.463,0.947
					c0.078,0.365,0.116,0.784,0.116,1.256v3.929h0.953v1.501h-6.647v-1.501h3.729v-3.935c0-0.992-0.545-1.488-1.636-1.488
					c-0.554,0-1.146,0.039-1.777,0.116l-0.316,0.039v-1.552C91.504,14.765,92.285,14.727,93.217,14.727z"/>
				<path style="fill:#FFFFFF;" d="M106.664,14.856v2.976c0,0.726-0.144,1.275-0.432,1.649c-0.116,0.15-0.279,0.295-0.489,0.435
					s-0.459,0.252-0.747,0.338l1.854,2.911h-2.235l-2.473-4.115c-0.202,0.086-0.342,0.219-0.422,0.399
					c-0.079,0.18-0.121,0.423-0.125,0.728v2.989h-1.958v-2.969c0-0.215,0.01-0.405,0.029-0.57c0.019-0.165,0.062-0.349,0.128-0.551
					c0.067-0.202,0.159-0.379,0.277-0.531c0.118-0.152,0.283-0.298,0.496-0.438c0.213-0.139,0.465-0.252,0.757-0.338l-1.848-2.911
					h2.228l1.675,2.847l0.805,1.269c0.189-0.086,0.322-0.219,0.399-0.399c0.078-0.18,0.118-0.421,0.123-0.721v-2.995h1.958V14.856z"
					/>
			</g>
		</g>
		<path style="fill:#093446;" d="M0,31.224"/>
	</g>
</g>
<g id="Layer_1">
</g>
</svg>
